{
    "clubs": [
      "CREATE TABLE clubs (id INTEGER PRIMARY KEY AUTOINCREMENT, name TEXT NOT NULL, foundation_date DATE NOT NULL)",
      "INSERT INTO clubs (name, foundation_date) VALUES ('Club de fútbol', '2023-07-20')",
      "SELECT * FROM clubs"
    ],
    "members": [
      "CREATE TABLE members (id INTEGER PRIMARY KEY AUTOINCREMENT, name TEXT NOT NULL, club_id INTEGER NOT NULL)",
      "INSERT INTO members (name, club_id) VALUES ('Miembro 1', 1)",
      "SELECT * FROM members"
    ]
  }